<?xml version="1.0" standalone="no"?>
<!DOCTYPE svg PUBLIC "-//W3C//DTD SVG 20010904//EN"
 "http://www.w3.org/TR/2001/REC-SVG-20010904/DTD/svg10.dtd">
<svg version="1.0" xmlns="http://www.w3.org/2000/svg"
 width="260.000000pt" height="260.000000pt" viewBox="0 0 260.000000 260.000000"
 preserveAspectRatio="xMidYMid meet">
<metadata>
Created by potrace 1.11, written by Peter Selinger 2001-2013
</metadata>
<g transform="translate(0.000000,260.000000) scale(0.100000,-0.100000)"
fill="#000000" stroke="none">
<path d="M1908 2135 c-2 -2 -31 -5 -64 -9 -180 -19 -347 -116 -419 -243 -33
-60 -57 -164 -54 -241 5 -148 49 -253 144 -340 70 -64 129 -99 329 -192 199
-92 248 -145 210 -226 -31 -66 -11 -64 -738 -64 -428 0 -656 3 -656 10 0 5
122 184 272 397 150 214 307 438 350 500 l78 111 0 136 c0 123 -2 136 -17 137
-22 0 -1192 0 -1213 0 -13 -1 -15 -27 -15 -178 l0 -178 343 0 c252 0 341 -3
338 -11 -3 -7 -160 -233 -351 -504 l-347 -493 0 -121 c0 -67 0 -129 1 -138 1
-17 56 -18 1001 -18 l1001 0 79 31 c212 81 322 238 334 474 3 49 -22 156 -50
212 -52 109 -134 169 -404 301 -203 99 -241 128 -243 186 -4 127 219 139 491
27 39 -16 72 -26 72 -20 0 5 9 28 19 52 50 113 111 281 104 287 -26 24 -248
90 -353 106 -44 6 -237 13 -242 9z"/>
</g>
</svg>
